Statistical modelling of individual taxa • microViz
…
lm_stats %>% taxatree_stats_get()
#> # A tibble: 670 × 8
#>    term        taxon            rank   formula   estim…¹ std.e…² stati…³ p.value
#>    <fct>       <chr>            <fct>  <chr>       <dbl>   <dbl>   <dbl>   <dbl>
#>  1 UC          P: Firmicutes    Phylum `P: Firm… -22.3     13.6   -1.64  0.107  
#>  2 female      P: Firmicutes    Phylum `P: Firm… -11.7      9.66  -1.21  0.230  
#>  3 antibiotics P: Firmicutes    Phylum `P: Firm… -19.8     13.1   -1.51  0.137  
#>  4 steroids    P: Firmicutes    Phylum `P: Firm… -32.7     12.4   -2.63  0.0107 
#>  5 age_scaled  P: Firmicutes    Phylum `P: Firm…  -0.600    5.45  -0.110 0.913  
#>  6 UC          P: Bacteroidetes Phylum `P: Bact… -13.8      4.15  -3.32  0.00151
#>  7 female      P: Bacteroidetes Phylum `P: Bact…  -1.21     2.95  -0.410 0.683  
#>  8 antibiotics P: Bacteroidetes Phylum `P: Bact…   1.37     4.01   0.342 0.734  
#>  9 steroids    P: Bacteroidetes Phylum `P: Bact…  -4.36     3.79  -1.15  0.255  
#> 10 age_scaled  P: Bacteroidetes Phylum `P: Bact…  -0.937    1.67  -0.563 0.576  
#> # … with 660 more rows, and abbreviated variable names ¹​estimate, ²​std.error,
#> #   ³​statistic
…
Using the taxatree_stats_p_adjust() function, you can
correct for multiple testing / control the false discovery rate or
family-wise error rate.

Instead of applying these adjustment methods across all 88 taxa
models at all ranks, the default behaviour is to control the family-wise
error rate per rank.

lm_stats <- taxatree_stats_p_adjust(
  data = lm_stats, method = "BH", grouping = "rank"
)
# notice the new variable
lm_stats %>% taxatree_stats_get()
#> # A tibble: 670 × 9
#> # Groups:   rank [5]
#>    term        taxon       rank  formula estim…¹ std.e…² stati…³ p.value p.adj…⁴
#>    <fct>       <chr>       <fct> <chr>     <dbl>   <dbl>   <dbl>   <dbl>   <dbl>
#>  1 UC          P: Firmicu… Phyl… `P: Fi… -22.3     13.6   -1.64  0.107    0.391 
#>  2 female      P: Firmicu… Phyl… `P: Fi… -11.7      9.66  -1.21  0.230    0.473 
#>  3 antibiotics P: Firmicu… Phyl… `P: Fi… -19.8     13.1   -1.51  0.137    0.399 
#>  4 steroids    P: Firmicu… Phyl… `P: Fi… -32.7     12.4   -2.63  0.0107   0.125 
#>  5 age_scaled  P: Firmicu… Phyl… `P: Fi…  -0.600    5.45  -0.110 0.913    0.940 
#>  6 UC          P: Bactero… Phyl… `P: Ba… -13.8      4.15  -3.32  0.00151  0.0530
#>  7 female      P: Bactero… Phyl… `P: Ba…  -1.21     2.95  -0.410 0.683    0.828 
#>  8 antibiotics P: Bactero… Phyl… `P: Ba…   1.37     4.01   0.342 0.734    0.828 
#>  9 steroids    P: Bactero… Phyl… `P: Ba…  -4.36     3.79  -1.15  0.255    0.495 
#> 10 age_scaled  P: Bactero… Phyl… `P: Ba…  -0.937    1.67  -0.563 0.576    0.776 
#> # … with 660 more rows, and abbreviated variable names ¹​estimate, ²​std.error,
#> #   ³​statistic, ⁴​p.adj.BH.rank
…
bb_stats <- taxatree_models2stats(bb_models, param = "mu")
bb_stats
#> psExtra object - a phyloseq object with extra slots:
#> 
#> phyloseq-class experiment-level object
#> otu_table()   OTU Table:         [ 105 taxa and 67 samples ]
#> sample_data() Sample Data:       [ 67 samples by 19 sample variables ]
#> tax_table()   Taxonomy Table:    [ 105 taxa by 6 taxonomic ranks ]
#> 
#> 
#> taxatree_stats dataframe:
#> 30 taxa at 4 ranks: Phylum, Class, Order, Family 
#> 5 terms: UC, female, antibiotics, steroids, age_scaled
bb_stats %>% taxatree_stats_get()
#> # A tibble: 150 × 9
#>    term        taxon       rank  formula param…¹ estim…² std.e…³ t.sta…⁴ p.value
#>    <fct>       <chr>       <fct> <chr>   <chr>     <dbl>   <dbl>   <dbl>   <dbl>
#>  1 UC          P: Firmicu… Phyl… `P: Fi… mu      -0.375    0.434 -0.864    0.392
#>  2 female      P: Firmicu… Phyl… `P: Fi… mu       0.0227   0.309  0.0734   0.942
#>  3 antibiotics P: Firmicu… Phyl… `P: Fi… mu      -0.781    0.478 -1.63     0.108
#>  4 steroids    P: Firmicu… Phyl… `P: Fi… mu      -0.162    0.426 -0.380    0.705
#>  5 age_scaled  P: Firmicu… Phyl… `P: Fi… mu       0.294    0.188  1.56     0.124
#>  6 UC          P: Bactero… Phyl… `P: Ba… mu      -0.814    0.558 -1.46     0.150
#>  7 female      P: Bactero… Phyl… `P: Ba… mu      -0.559    0.349 -1.60     0.115
#>  8 antibiotics P: Bactero… Phyl… `P: Ba… mu      -0.116    0.706 -0.164    0.871
#>  9 steroids    P: Bactero… Phyl… `P: Ba… mu      -0.130    0.656 -0.197    0.844
#> 10 age_scaled  P: Bactero… Phyl… `P: Ba… mu      -0.0967   0.264 -0.366    0.716
#> # … with 140 more rows, and abbreviated variable names ¹​parameter, ²​estimate,
#> #   ³​std.error, ⁴​t.statistic
…
