…
``` r
lm_stats %>% taxatree_stats_get()
#> # A tibble: 670 × 8
#>    term        taxon          rank  formula estimate std.error statistic p.value
#>    <fct>       <chr>          <fct> <chr>      <dbl>     <dbl>     <dbl>   <dbl>
#>  1 UC          P: Firmicutes  Phyl… `P: Fi…   0.0430     0.455    0.0945  0.925 
#>  2 female      P: Firmicutes  Phyl… `P: Fi…  -0.297      0.324   -0.919   0.362 
#>  3 antibiotics P: Firmicutes  Phyl… `P: Fi…  -0.793      0.440   -1.80    0.0763
#>  4 steroids    P: Firmicutes  Phyl… `P: Fi…  -0.747      0.415   -1.80    0.0771
#>  5 age_scaled  P: Firmicutes  Phyl… `P: Fi…   0.144      0.183    0.788   0.434 
#>  6 UC          P: Bacteroide… Phyl… `P: Ba…  -2.58       1.63    -1.58    0.120 
#>  7 female      P: Bacteroide… Phyl… `P: Ba…  -1.01       1.16    -0.870   0.388 
#>  8 antibiotics P: Bacteroide… Phyl… `P: Ba…   1.52       1.58     0.962   0.340 
#>  9 steroids    P: Bacteroide… Phyl… `P: Ba…  -1.67       1.49    -1.12    0.266 
#> 10 age_scaled  P: Bacteroide… Phyl… `P: Ba…  -0.340      0.655   -0.519   0.605 
#> # ℹ 660 more rows
```
…
Instead of applying these adjustment methods across all 88 taxa models
at all ranks, the default behaviour is to control the family-wise error
rate per rank.

``` r
lm_stats <- taxatree_stats_p_adjust(
  data = lm_stats, method = "BH", grouping = "rank"
)
# notice the new variable
lm_stats %>% taxatree_stats_get()
#> # A tibble: 670 × 9
#> # Groups:   rank [5]
#>    term   taxon rank  formula estimate std.error statistic p.value p.adj.BH.rank
#>    <fct>  <chr> <fct> <chr>      <dbl>     <dbl>     <dbl>   <dbl>         <dbl>
#>  1 UC     P: F… Phyl… `P: Fi…   0.0430     0.455    0.0945  0.925          0.925
#>  2 female P: F… Phyl… `P: Fi…  -0.297      0.324   -0.919   0.362          0.569
#>  3 antib… P: F… Phyl… `P: Fi…  -0.793      0.440   -1.80    0.0763         0.386
#>  4 stero… P: F… Phyl… `P: Fi…  -0.747      0.415   -1.80    0.0771         0.386
#>  5 age_s… P: F… Phyl… `P: Fi…   0.144      0.183    0.788   0.434          0.584
#>  6 UC     P: B… Phyl… `P: Ba…  -2.58       1.63    -1.58    0.120          0.415
#>  7 female P: B… Phyl… `P: Ba…  -1.01       1.16    -0.870   0.388          0.569
#>  8 antib… P: B… Phyl… `P: Ba…   1.52       1.58     0.962   0.340          0.569
#>  9 stero… P: B… Phyl… `P: Ba…  -1.67       1.49    -1.12    0.266          0.569
#> 10 age_s… P: B… Phyl… `P: Ba…  -0.340      0.655   -0.519   0.605          0.715
#> # ℹ 660 more rows
```
…
bb_stats <- taxatree_models2stats(bb_models, param = "mu")
bb_stats
#> psExtra object - a phyloseq object with extra slots:
#> 
#> phyloseq-class experiment-level object
#> otu_table()   OTU Table:         [ 105 taxa and 67 samples ]
#> sample_data() Sample Data:       [ 67 samples by 19 sample variables ]
#> tax_table()   Taxonomy Table:    [ 105 taxa by 6 taxonomic ranks ]
#> 
#> 
#> taxatree_stats dataframe:
#> 30 taxa at 4 ranks: Phylum, Class, Order, Family 
#> 5 terms: UC, female, antibiotics, steroids, age_scaled
bb_stats %>% taxatree_stats_get()
#> # A tibble: 150 × 9
#>    term     taxon rank  formula parameter estimate std.error t.statistic p.value
#>    <fct>    <chr> <fct> <chr>   <chr>        <dbl>     <dbl>       <dbl>   <dbl>
#>  1 UC       P: F… Phyl… `P: Fi… mu         -0.375      0.434     -0.864    0.392
#>  2 female   P: F… Phyl… `P: Fi… mu          0.0227     0.309      0.0734   0.942
#>  3 antibio… P: F… Phyl… `P: Fi… mu         -0.781      0.478     -1.63     0.108
#>  4 steroids P: F… Phyl… `P: Fi… mu         -0.162      0.426     -0.380    0.705
#>  5 age_sca… P: F… Phyl… `P: Fi… mu          0.294      0.188      1.56     0.124
#>  6 UC       P: B… Phyl… `P: Ba… mu         -0.814      0.558     -1.46     0.150
#>  7 female   P: B… Phyl… `P: Ba… mu         -0.559      0.349     -1.60     0.115
#>  8 antibio… P: B… Phyl… `P: Ba… mu         -0.116      0.706     -0.164    0.871
#>  9 steroids P: B… Phyl… `P: Ba… mu         -0.130      0.656     -0.197    0.844
#> 10 age_sca… P: B… Phyl… `P: Ba… mu         -0.0967     0.264     -0.366    0.716
#> # ℹ 140 more rows
```
…
