Working with phyloseq objects • microViz
…
Check out the examples section on each function’s reference page for extensive usage examples.

Example sample manipulation

Lets look at the sample data already in our example phyloseq.

# 91 samples, with 15 sample_data variables
example_ps 
#> phyloseq-class experiment-level object
#> otu_table()   OTU Table:         [ 36349 taxa and 91 samples ]
#> sample_data() Sample Data:       [ 91 samples by 15 sample variables ]
#> tax_table()   Taxonomy Table:    [ 36349 taxa by 7 taxonomic ranks ]
# return sample data as a tibble for pretty printing
samdat_tbl(example_ps)
#> # A tibble: 91 × 16
#>    .sample_name sample gender   age DiseaseState steroids imsp  abx   mesalamine
#>    <chr>        <chr>  <chr>  <int> <chr>        <chr>    <chr> <chr> <chr>     
#>  1 099A         099-AX female    17 UC           steroids imsp  noabx nomes     
#>  2 199A         199-AX female     5 nonIBD       nostero… noim… noabx nomes     
#>  3 062B         062-BZ male      16 CD           steroids imsp  noabx nomes     
#>  4 194A         194-AZ male      15 UC           steroids noim… noabx nomes     
#>  5 166A         166-AX female    20 UC           nostero… noim… abx   nomes     
#>  6 219A         219-AX female    18 UC           nostero… imsp  abx   nomes     
#>  7 132A         132-AX female    12 CD           steroids imsp  noabx nomes     
#>  8 026A         026-AX male      10 UC           steroids imsp  abx   nomes     
#>  9 102A         102-AZ male       3 nonIBD       nostero… noim… noabx nomes     
#> 10 140A         140-AX female     5 nonIBD       nostero… noim… noabx nomes     
#> # … with 81 more rows, and 7 more variables: ibd <chr>, activity <chr>,
#> #   active <chr>, race <chr>, fhx <chr>, imspLEVEL <chr>, SampleType <chr>
…
