Learn microbiome analysis with microViz • microViz
…
shaoStats$taxatree_stats

## # A tibble: 344 × 7
##    term           taxon             rank   estimate std.error statistic  p.value
##    <fct>          <chr>             <fct>     <dbl>     <dbl>     <dbl>    <dbl>
##  1 C_section      p: Proteobacteria phylum  -3.44       1.31    -2.62   9.23e- 3
##  2 Female         p: Proteobacteria phylum   0.595      1.29     0.460  6.46e- 1
##  3 Birth_weight_Z p: Proteobacteria phylum   0.0179     0.640    0.0279 9.78e- 1
##  4 Reads_Z        p: Proteobacteria phylum  -1.22       0.659   -1.86   6.44e- 2
##  5 C_section      p: Actinobacteria phylum -16.9        2.37    -7.12   8.98e-12
##  6 Female         p: Actinobacteria phylum  -2.80       2.33    -1.20   2.30e- 1
##  7 Birth_weight_Z p: Actinobacteria phylum   1.65       1.15     1.43   1.55e- 1
##  8 Reads_Z        p: Actinobacteria phylum  -2.86       1.19    -2.41   1.67e- 2
##  9 C_section      p: Firmicutes     phylum  15.3        4.21     3.62   3.43e- 4
## 10 Female         p: Firmicutes     phylum   0.741      4.15     0.179  8.58e- 1
## # … with 334 more rows

Adjusting p values

As we have performed a lot of statistical tests here, it is quite possible that could we find some significant p-values by chance alone.

So we should correct for multiple testing / control the false discovery rate or family-wise error rate.

Instead of applying these adjustment methods across all 86 taxa models at all ranks, the default behaviour is to control the family-wise error rate per taxonomic rank.

shaoStats <- shaoStats %>% taxatree_stats_p_adjust(method = "BH", grouping = "rank")
# notice the new variable
shaoStats$taxatree_stats

## # A tibble: 344 × 8
## # Groups:   rank [6]
##    term          taxon rank  estimate std.error statistic  p.value p.adj.BH.rank
##    <fct>         <chr> <fct>    <dbl>     <dbl>     <dbl>    <dbl>         <dbl>
##  1 C_section     p: P… phyl…  -3.44       1.31    -2.62   9.23e- 3      2.95e- 2
##  2 Female        p: P… phyl…   0.595      1.29     0.460  6.46e- 1      7.38e- 1
##  3 Birth_weight… p: P… phyl…   0.0179     0.640    0.0279 9.78e- 1      9.78e- 1
##  4 Reads_Z       p: P… phyl…  -1.22       0.659   -1.86   6.44e- 2      1.47e- 1
##  5 C_section     p: A… phyl… -16.9        2.37    -7.12   8.98e-12      7.19e-11
##  6 Female        p: A… phyl…  -2.80       2.33    -1.20   2.30e- 1      3.07e- 1
##  7 Birth_weight… p: A… phyl…   1.65       1.15     1.43   1.55e- 1      2.48e- 1
##  8 Reads_Z       p: A… phyl…  -2.86       1.19    -2.41   1.67e- 2      4.46e- 2
##  9 C_section     p: F… phyl…  15.3        4.21     3.62   3.43e- 4      1.83e- 3
## 10 Female        p: F… phyl…   0.741      4.15     0.179  8.58e- 1      9.16e- 1
## # … with 334 more rows
…
