…
``` r
shaoStats %>% taxatree_stats_get()
```

    ## # A tibble: 356 × 8
    ##    term           taxon      rank  formula estimate std.error statistic  p.value
    ##    <fct>          <chr>      <fct> <chr>      <dbl>     <dbl>     <dbl>    <dbl>
    ##  1 C_section      p: Proteo… phyl… `p: Pr…  -3.72       0.812   -4.58   7.01e- 6
    ##  2 Female         p: Proteo… phyl… `p: Pr…  -0.0684     0.800   -0.0855 9.32e- 1
    ##  3 Birth_weight_Z p: Proteo… phyl… `p: Pr…  -0.253      0.396   -0.638  5.24e- 1
    ##  4 Reads_Z        p: Proteo… phyl… `p: Pr…  -0.369      0.408   -0.905  3.66e- 1
    ##  5 C_section      p: Actino… phyl… `p: Ac…  -4.25       0.739   -5.75   2.25e- 8
    ##  6 Female         p: Actino… phyl… `p: Ac…  -0.439      0.728   -0.603  5.47e- 1
    ##  7 Birth_weight_Z p: Actino… phyl… `p: Ac…   0.293      0.361    0.813  4.17e- 1
    ##  8 Reads_Z        p: Actino… phyl… `p: Ac…  -0.876      0.371   -2.36   1.90e- 2
    ##  9 C_section      p: Firmic… phyl… `p: Fi…   2.43       0.342    7.12   8.74e-12
    ## 10 Female         p: Firmic… phyl… `p: Fi…   0.697      0.337    2.07   3.95e- 2
    ## # ℹ 346 more rows
…
So we should correct for multiple testing / control the false discovery
rate or family-wise error rate.

Instead of applying these adjustment methods across all 86 taxa models
at all ranks, the default behaviour is to control the family-wise error
rate per taxonomic rank.

``` r
shaoStats <- shaoStats %>% taxatree_stats_p_adjust(method = "BH", grouping = "rank")
# notice the new variable
shaoStats %>% taxatree_stats_get()
```

    ## # A tibble: 356 × 9
    ## # Groups:   rank [6]
    ##    term  taxon rank  formula estimate std.error statistic  p.value p.adj.BH.rank
    ##    <fct> <chr> <fct> <chr>      <dbl>     <dbl>     <dbl>    <dbl>         <dbl>
    ##  1 C_se… p: P… phyl… `p: Pr…  -3.72       0.812   -4.58   7.01e- 6      2.81e- 5
    ##  2 Fema… p: P… phyl… `p: Pr…  -0.0684     0.800   -0.0855 9.32e- 1      9.32e- 1
    ##  3 Birt… p: P… phyl… `p: Pr…  -0.253      0.396   -0.638  5.24e- 1      6.45e- 1
    ##  4 Read… p: P… phyl… `p: Pr…  -0.369      0.408   -0.905  3.66e- 1      6.39e- 1
    ##  5 C_se… p: A… phyl… `p: Ac…  -4.25       0.739   -5.75   2.25e- 8      1.20e- 7
    ##  6 Fema… p: A… phyl… `p: Ac…  -0.439      0.728   -0.603  5.47e- 1      6.45e- 1
    ##  7 Birt… p: A… phyl… `p: Ac…   0.293      0.361    0.813  4.17e- 1      6.39e- 1
    ##  8 Read… p: A… phyl… `p: Ac…  -0.876      0.371   -2.36   1.90e- 2      5.07e- 2
    ##  9 C_se… p: F… phyl… `p: Fi…   2.43       0.342    7.12   8.74e-12      6.99e-11
    ## 10 Fema… p: F… phyl… `p: Fi…   0.697      0.337    2.07   3.95e- 2      9.03e- 2
    ## # ℹ 346 more rows
…
