Calculate distances between sequential samples in ps_extra/phyloseq object — dist_calc_seq • microViz
…
pseq <- dietswap %>%
  tax_transform("identity", rank = "Genus") %>%
  dist_calc_seq(
    dist = "aitchison", group = "subject", seq = "timepoint",
    # group sizes are unequal because some subjects are missing a timepoint
    unequal = "ignore"
  )
#> Warning: ps_split may drop different taxa per group with ps_filter

pseq %>%
  samdat_tbl() %>%
  dplyr::select(1, subject, timepoint, dplyr::last_col())
#> # A tibble: 222 × 4
#>    .sample_name subject timepoint aitchison_DistFromLast
#>    <chr>        <fct>       <int>                  <dbl>
#>  1 Sample-32    azh             1                 NaN   
#>  2 Sample-109   azh             2                   9.27
#>  3 Sample-119   azh             3                  11.2 
#>  4 Sample-130   azh             4                   9.19
#>  5 Sample-140   azh             5                   5.12
#>  6 Sample-41    azh             6                   5.30
#>  7 Sample-61    azl             1                 NaN   
#>  8 Sample-93    azl             2                   7.99
#>  9 Sample-106   azl             3                   8.44
#> 10 Sample-78    azl             4                   8.24
#> # ℹ 212 more rows
…
