Extract statistics from taxatree_models or tax_model output — taxatree_models2stats • microViz
…
# inspect the dataframe itself
lm_stats %>% taxatree_stats_get()
#> # A tibble: 440 × 8
#>    term        taxon          rank  formula estimate std.error statistic p.value
#>    <fct>       <chr>          <fct> <chr>      <dbl>     <dbl>     <dbl>   <dbl>
#>  1 UC          P: Firmicutes  Phyl… `P: Fi…   0.0430     0.455    0.0945  0.925 
#>  2 female      P: Firmicutes  Phyl… `P: Fi…  -0.297      0.324   -0.919   0.362 
#>  3 antibiotics P: Firmicutes  Phyl… `P: Fi…  -0.793      0.440   -1.80    0.0763
#>  4 steroids    P: Firmicutes  Phyl… `P: Fi…  -0.747      0.415   -1.80    0.0771
#>  5 age_scaled  P: Firmicutes  Phyl… `P: Fi…   0.144      0.183    0.788   0.434 
#>  6 UC          P: Bacteroide… Phyl… `P: Ba…  -2.58       1.63    -1.58    0.120 
#>  7 female      P: Bacteroide… Phyl… `P: Ba…  -1.01       1.16    -0.870   0.388 
#>  8 antibiotics P: Bacteroide… Phyl… `P: Ba…   1.52       1.58     0.962   0.340 
#>  9 steroids    P: Bacteroide… Phyl… `P: Ba…  -1.67       1.49    -1.12    0.266 
#> 10 age_scaled  P: Bacteroide… Phyl… `P: Ba…  -0.340      0.655   -0.519   0.605 
#> # ℹ 430 more rows
…
