Extract elements from psExtra class — psExtra-accessors • microViz
…
samdat_tbl(psx)
#> # A tibble: 222 × 9
#>    .sample_name subject sex    nationality group sample    timepoint
#>    <chr>        <fct>   <fct>  <fct>       <fct> <chr>         <int>
#>  1 Sample-1     byn     male   AAM         DI    Sample-1          4
#>  2 Sample-2     nms     male   AFR         HE    Sample-2          2
#>  3 Sample-3     olt     male   AFR         HE    Sample-3          2
#>  4 Sample-4     pku     female AFR         HE    Sample-4          2
#>  5 Sample-5     qjy     female AFR         HE    Sample-5          2
#>  6 Sample-6     riv     female AFR         HE    Sample-6          2
#>  7 Sample-7     shj     female AFR         HE    Sample-7          2
#>  8 Sample-8     tgx     male   AFR         HE    Sample-8          2
#>  9 Sample-9     ufm     male   AFR         HE    Sample-9          2
#> 10 Sample-10    nms     male   AFR         HE    Sample-10         3
#> # ℹ 212 more rows
#> # ℹ 2 more variables: timepoint.within.group <int>, bmi_group <fct>

samdat_tbl(psx, sample_names_col = "SAMPLENAME")
#> # A tibble: 222 × 9
#>    SAMPLENAME subject sex    nationality group sample    timepoint
#>    <chr>      <fct>   <fct>  <fct>       <fct> <chr>         <int>
#>  1 Sample-1   byn     male   AAM         DI    Sample-1          4
#>  2 Sample-2   nms     male   AFR         HE    Sample-2          2
#>  3 Sample-3   olt     male   AFR         HE    Sample-3          2
#>  4 Sample-4   pku     female AFR         HE    Sample-4          2
#>  5 Sample-5   qjy     female AFR         HE    Sample-5          2
#>  6 Sample-6   riv     female AFR         HE    Sample-6          2
#>  7 Sample-7   shj     female AFR         HE    Sample-7          2
#>  8 Sample-8   tgx     male   AFR         HE    Sample-8          2
#>  9 Sample-9   ufm     male   AFR         HE    Sample-9          2
#> 10 Sample-10  nms     male   AFR         HE    Sample-10         3
#> # ℹ 212 more rows
#> # ℹ 2 more variables: timepoint.within.group <int>, bmi_group <fct>
…
