Add logical label column to taxatree_stats dataframe — taxatree_label • microViz
…
# notice how both conditions must be met for label column to be TRUE
labelled %>% taxatree_stats_get()
#> # A tibble: 161 × 5
#>    taxon              parent            rank   prevalence label
#>    <chr>              <chr>             <chr>       <dbl> <lgl>
#>  1 root               root              root       1      FALSE
#>  2 P: Actinobacteria  root              Phylum     1      TRUE 
#>  3 P: Firmicutes      root              Phylum     1      TRUE 
#>  4 P: Proteobacteria  root              Phylum     1      TRUE 
#>  5 P: Verrucomicrobia root              Phylum     1      TRUE 
#>  6 P: Bacteroidetes   root              Phylum     1      TRUE 
#>  7 P: Spirochaetes    root              Phylum     0.0811 FALSE
#>  8 P: Fusobacteria    root              Phylum     1      TRUE 
#>  9 P: Cyanobacteria   root              Phylum     0.0180 FALSE
#> 10 F: Actinobacteria  P: Actinobacteria Family     1      FALSE
#> # ℹ 151 more rows
…
