Adjust p values in taxatree_stats dataframe — taxatree_stats_p_adjust • microViz
…
bb_stats
#> psExtra object - a phyloseq object with extra slots:
#> 
#> phyloseq-class experiment-level object
#> otu_table()   OTU Table:         [ 105 taxa and 67 samples ]
#> sample_data() Sample Data:       [ 67 samples by 19 sample variables ]
#> tax_table()   Taxonomy Table:    [ 105 taxa by 6 taxonomic ranks ]
#> 
#> 
#> taxatree_stats dataframe:
#> 19 taxa at 3 ranks: Phylum, Class, Order 
#> 5 terms: UC, female, antibiotics, steroids, age_scaled

bb_stats %>% taxatree_stats_get()
#> # A tibble: 95 × 10
#> # Groups:   rank [3]
#>    term     taxon rank  formula parameter estimate std.error t.statistic p.value
#>    <fct>    <chr> <fct> <chr>   <chr>        <dbl>     <dbl>       <dbl>   <dbl>
#>  1 UC       P: F… Phyl… `P: Fi… mu         -0.375      0.434     -0.864    0.392
#>  2 female   P: F… Phyl… `P: Fi… mu          0.0227     0.309      0.0734   0.942
#>  3 antibio… P: F… Phyl… `P: Fi… mu         -0.781      0.478     -1.63     0.108
#>  4 steroids P: F… Phyl… `P: Fi… mu         -0.162      0.426     -0.380    0.705
#>  5 age_sca… P: F… Phyl… `P: Fi… mu          0.294      0.188      1.56     0.124
#>  6 UC       P: B… Phyl… `P: Ba… mu         -0.814      0.558     -1.46     0.150
#>  7 female   P: B… Phyl… `P: Ba… mu         -0.559      0.349     -1.60     0.115
#>  8 antibio… P: B… Phyl… `P: Ba… mu         -0.116      0.706     -0.164    0.871
#>  9 steroids P: B… Phyl… `P: Ba… mu         -0.130      0.656     -0.197    0.844
#> 10 age_sca… P: B… Phyl… `P: Ba… mu         -0.0967     0.264     -0.366    0.716
#> # ℹ 85 more rows
#> # ℹ 1 more variable: p.adj.BH.rank <dbl>

# you can also directly modify the dataframe,
# and choose a different variable name
bb_stats %>%
  taxatree_stats_get() %>%
  taxatree_stats_p_adjust(
    method = "holm", grouping = "taxon", new_var = "p_adj_holm"
  )
#> # A tibble: 95 × 11
#> # Groups:   taxon [19]
#>    term     taxon rank  formula parameter estimate std.error t.statistic p.value
#>    <fct>    <chr> <fct> <chr>   <chr>        <dbl>     <dbl>       <dbl>   <dbl>
#>  1 UC       P: F… Phyl… `P: Fi… mu         -0.375      0.434     -0.864    0.392
#>  2 female   P: F… Phyl… `P: Fi… mu          0.0227     0.309      0.0734   0.942
#>  3 antibio… P: F… Phyl… `P: Fi… mu         -0.781      0.478     -1.63     0.108
#>  4 steroids P: F… Phyl… `P: Fi… mu         -0.162      0.426     -0.380    0.705
#>  5 age_sca… P: F… Phyl… `P: Fi… mu          0.294      0.188      1.56     0.124
#>  6 UC       P: B… Phyl… `P: Ba… mu         -0.814      0.558     -1.46     0.150
#>  7 female   P: B… Phyl… `P: Ba… mu         -0.559      0.349     -1.60     0.115
#>  8 antibio… P: B… Phyl… `P: Ba… mu         -0.116      0.706     -0.164    0.871
#>  9 steroids P: B… Phyl… `P: Ba… mu         -0.130      0.656     -0.197    0.844
#> 10 age_sca… P: B… Phyl… `P: Ba… mu         -0.0967     0.264     -0.366    0.716
#> # ℹ 85 more rows
#> # ℹ 2 more variables: p.adj.BH.rank <dbl>, p_adj_holm <dbl>
…
