Example analyses: Shao 2019 data • microViz
…
taxa_names(shao19) %>% head()
#> [1] "Escherichia coli"             "Bacteroides caccae"          
#> [3] "Bacteroides stercoris"        "Ruminococcus bromii"         
#> [5] "[Eubacterium] rectale"        "Bifidobacterium adolescentis"

sample_variables(shao19)
#>  [1] "subject_id"              "family_id"              
#>  [3] "sex"                     "family_role"            
#>  [5] "age"                     "infant_age"             
#>  [7] "birth_weight"            "birth_mode"             
#>  [9] "c_section_type"          "antibiotics_current_use"
#> [11] "number_reads"

samdat_tbl(shao19) # retrieve sample_data as a tibble
#> # A tibble: 1,644 × 12
#>    .sample_name subject_id family_id sex    family_role   age infant_age
#>    <chr>        <chr>      <chr>     <chr>  <chr>       <int>      <int>
#>  1 B01042_mo    B01042_mo  193       male   mother         32         NA
#>  2 B01042_ba_10 B01042_ba  193       male   child           0         10
#>  3 B01042_ba_7  B01042_ba  193       male   child           0          7
#>  4 B01089_mo    B01089_mo  194       female mother         38         NA
#>  5 B01089_ba_4  B01089_ba  194       female child           0          4
#>  6 B01089_ba_7  B01089_ba  194       female child           0          7
#>  7 B01089_ba_21 B01089_ba  194       female child           0         21
#>  8 B01128_ba_7  B01128_ba  195       male   child           0          7
#>  9 B01128_mo    B01128_mo  195       male   mother         32         NA
#> 10 B01190_ba_21 B01190_ba  196       male   child           0         21
#> # ℹ 1,634 more rows
#> # ℹ 5 more variables: birth_weight <dbl>, birth_mode <chr>,
#> #   c_section_type <chr>, antibiotics_current_use <chr>, number_reads <int>
…
taxatree_models_get(shao4d_treeStats)$genus$`g: Phocaeicola`
#> 
#> Call:
#> `g: Phocaeicola` ~ Csection
#> 
#> Coefficients:
#> (Intercept)     Csection  
#>     -12.400       -7.057

The stats extracted from each model (with the help of
broom::tidy()) are stored in a tibble (data frame).

taxatree_stats_get(shao4d_treeStats)
#> # A tibble: 57 × 9
#> # Groups:   rank [5]
#>    term     taxon            rank  formula estimate std.error statistic  p.value
#>    <fct>    <chr>            <fct> <chr>      <dbl>     <dbl>     <dbl>    <dbl>
#>  1 Csection p: Proteobacter… phyl… `p: Pr…    -2.58     0.767     -3.36 8.68e- 4
#>  2 Csection p: Bacteroidetes phyl… `p: Ba…    -8.73     0.698    -12.5  3.13e-29
#>  3 Csection p: Actinobacter… phyl… `p: Ac…    -4.67     0.679     -6.88 3.38e-11
#>  4 Csection p: Firmicutes    phyl… `p: Fi…     2.73     0.327      8.36 2.22e-15
#>  5 Csection c: Gammaproteob… class `c: Ga…    -2.67     0.768     -3.48 5.72e- 4
#>  6 Csection c: Bacteroidia   class `c: Ba…    -8.73     0.698    -12.5  3.13e-29
#>  7 Csection c: Actinomycetia class `c: Ac…    -4.47     0.684     -6.53 2.68e-10
#>  8 Csection c: Bacilli       class `c: Ba…     2.56     0.338      7.56 4.93e-13
#>  9 Csection c: Coriobacteri… class `c: Co…    -2.52     0.451     -5.59 5.12e- 8
#> 10 Csection c: Clostridia    class `c: Cl…     1.58     0.599      2.64 8.64e- 3
#> # ℹ 47 more rows
#> # ℹ 1 more variable: p.adj.fdr.rank <dbl>
…
shaoRepeated <- shao19 %>%
  ps_filter(subject_id %in% repeatedInfants) %>%
  ps_arrange(subject_id, infant_age) %>% # put the samples in age order, per infant
  ps_mutate(age_factor = factor(infant_age)) # useful for plotting

samdat_tbl(shaoRepeated)
#> # A tibble: 48 × 15
#>    .sample_name  subject_id family_id sex    family_role   age infant_age
#>    <chr>         <chr>      <chr>     <chr>  <chr>       <int>      <int>
#>  1 A00502_ba_4   A00502_ba  27        female child           0          4
#>  2 A00502_ba_7   A00502_ba  27        female child           0          7
#>  3 A00502_ba_21  A00502_ba  27        female child           0         21
#>  4 A00502_ba_226 A00502_ba  27        female child           0        226
#>  5 A01166_ba_4   A01166_ba  47        female child           0          4
#>  6 A01166_ba_7   A01166_ba  47        female child           0          7
#>  7 A01166_ba_21  A01166_ba  47        female child           0         21
#>  8 A01166_ba_420 A01166_ba  47        female child           0        420
#>  9 A01173_ba_4   A01173_ba  48        female child           0          4
#> 10 A01173_ba_7   A01173_ba  48        female child           0          7
#> # ℹ 38 more rows
#> # ℹ 8 more variables: birth_weight <dbl>, birth_mode <chr>,
#> #   c_section_type <chr>, antibiotics_current_use <chr>, number_reads <int>,
#> #   Csection <dbl>, birth_mode3 <chr>, age_factor <fct>
…
